Exploring the BRFSS data
…
#Both of the above variables are discrete variables. Now, using the dplyr and tidyr 
#package, data will be arranged in a way that provides meaningful insight. 
#Outliers in both variables will be removed along with NA's. 

#Also, the variable 'sex' will also be included.

brfss2013 %>%
  select(menthlth, sleptim1, sex) %>%
  filter(sleptim1 <= 24, menthlth <= 30, !is.na(sex)) %>%
  group_by(menthlth, sex) %>%
  summarize(mn_slp = mean(sleptim1)) %>%
  spread(key = sex, value = "mn_slp")

## # A tibble: 31 x 3
## # Groups:   menthlth [31]
##    menthlth  Male Female
##       <int> <dbl>  <dbl>
##  1        0  7.13   7.18
##  2        1  6.97   7.07
##  3        2  6.93   7.04
##  4        3  6.86   6.98
##  5        4  6.88   6.92
##  6        5  6.84   6.96
##  7        6  6.69   6.87
##  8        7  6.78   6.86
##  9        8  6.78   6.98
## 10        9  6.65   6.88
## # ... with 21 more rows
…
